Project 1: Wrangling, Exploration, Visualization
…
## # A tibble: 1 x 7
##   movie.title Certificate IMDB.Rating Meta.score Director No.of.Votes
##         <int>       <int>       <int>      <int>    <int>       <int>
## 1         999          17          17         64      548         999
## #  with 1 more variable: `gross(IMDB.data)` <int>

# appear in data1 but not data2
nrow(anti_join(data1, data2, by = c("movie.title")))

## [1] 529

data1.not.data2 <- anti_join(data1, data2, by = c("movie.title"))
data1.not.data2

## # A tibble: 529 x 5
##    movie.title         genre   mpaa.rating `gross(disney.da inflation.adjusted
##    <chr>               <chr>   <chr>                   <dbl>               <dbl>
##  1 Snow White and the Musical G                   184925485          5228953251
##  2 Pinocchio           Advent G                    84300000          2188229052
##  3 Song of the South   Advent G                    65000000          1078510579
##  4 Cinderella          Drama   G                    85000000           920608730
##  5 20,000 Leagues Und Advent <NA>                 28200000           528279994
##  6 Lady and the Tramp  Drama   G                    93600000          1236035515
##  7 Sleeping Beauty     Drama   <NA>                  9464608            21505832
##  8 101 Dalmatians      Comedy  G                   153000000          1362870985
##  9 The Absent Minded  Comedy  <NA>                 25381407           310094574
## 10 Babes in Toyland    Musical G                    10218316           124841160
## #  with 519 more rows

# appear in data2 but not data1
nrow(anti_join(data2, data1, by = c("movie.title")))

## [1] 952

data2.not.data1 <- anti_join(data2, data1, by = c("movie.title"))
data2.not.data1

## # A tibble: 952 x 7
##    movie.title Certificate IMDB.Rating Meta.score Director No.of.Votes
##    <chr>       <chr>             <dbl>      <dbl> <chr>          <dbl>
##  1 The Shawsh A                   9.3         80 Frank D     2343110
##  2 The Godfat A                   9.2        100 Francis     1620367
##  3 The Dark K UA                  9           84 Christo     2303232
##  4 The Godfat A                   9           90 Francis     1129952
##  5 12 Angry M U                   9           96 Sidney       689845
##  6 The Lord o U                   8.9         94 Peter J     1642758
##  7 Pulp Ficti A                   8.9         94 Quentin     1826188
##  8 Schindler' A                   8.9         94 Steven      1213505
##  9 Inception   UA                  8.8         74 Christo     2067042
## 10 Fight Club  A                   8.8         66 David F     1854740
## #  with 942 more rows, and 1 more variable: `gross(IMDB.data)` <dbl>
…
Wrangling Using

library(knitr)
library(gt)

# average gross profit in descending order
movies_average_gross <- joined_data %>% select(movie.title, `gross(disney.data)`, 
    `gross(IMDB.data)`) %>% mutate(average_gross = (`gross(disney.data)` + 
    `gross(IMDB.data)`)/2) %>% arrange(desc(average_gross))
# the quartile based on the average gross profit
ntile_gross <- movies_average_gross %>% mutate(avg_gross4tile = ntile(average_gross, 
    4))
ntile_gross

## # A tibble: 50 x 5
##    movie.title    `gross(disney.d `gross(IMDB.dat average_gross avg_gross4tile
##    <chr>                     <dbl>            <dbl>         <dbl>          <int>
##  1 The Avengers          623279547        623279547    623279547               4
##  2 The Lion King         422780140        422783777    422781958.              4
##  3 Toy Story 3           415004880        415004880    415004880               4
##  4 Captain Ameri        408084349        408084349    408084349               4
##  5 Finding Nemo          380529370        380843261    380686316.              4
##  6 Inside Out            356461711        356461711    356461711               4
##  7 Zootopia              341268248        341268248    341268248               4
##  8 Guardians of         333172112        333176600    333174356               4
##  9 The Sixth Sen        293506292        293506292    293506292               4
## 10 Up                    293004164        293004164    293004164               4
## #  with 40 more rows
…
